Tidymodels
…
The third phase of recipe usage is to apply the preprocessing operations to a data set using the bake() function. The bake() function can apply the recipe to any data set. To use the test set, the syntax would be:

test_ex <- bake(simple_ames, new_data = ames_test)
names(test_ex) %>% head()

## [1] "Gr_Liv_Area"                "Year_Built"                
## [3] "Sale_Price"                 "Neighborhood_College_Creek"
## [5] "Neighborhood_Old_Town"      "Neighborhood_Edwards"

The bake() function can also take selectors so that, if we only wanted the neighborhood results, we could use:

bake(simple_ames, ames_test, starts_with("Neighborhood_"))

## # A tibble: 731 x 28
##    Neighborhood_Co Neighborhood_Ol Neighborhood_Ed Neighborhood_So
##               <dbl>            <dbl>            <dbl>            <dbl>
##  1                0                0                0                0
##  2                0                0                0                0
##  3                0                0                0                0
##  4                0                0                0                0
##  5                0                0                0                0
##  6                0                0                0                0
##  7                0                0                0                0
##  8                0                0                0                0
##  9                0                0                0                0
## 10                0                0                0                0
## #  with 721 more rows, and 24 more variables:
## #   Neighborhood_Northridge_Heights <dbl>, Neighborhood_Gilbert <dbl>,
## #   Neighborhood_Sawyer <dbl>, Neighborhood_Northwest_Ames <dbl>,
## #   Neighborhood_Sawyer_West <dbl>, Neighborhood_Mitchell <dbl>,
## #   Neighborhood_Brookside <dbl>, Neighborhood_Crawford <dbl>,
## #   Neighborhood_Iowa_DOT_and_Rail_Road <dbl>, Neighborhood_Timberland <dbl>,
## #   Neighborhood_Northridge <dbl>, Neighborhood_Stone_Brook <dbl>,
## #   Neighborhood_South_and_West_of_Iowa_State_University <dbl>,
## #   Neighborhood_Clear_Creek <dbl>, Neighborhood_Meadow_Village <dbl>,
…
Next, the two-way interactions are similarly evaluated against the model with no interactions. The p-value here is 0.0382. This is somewhat borderline, but, given the small sample size, it would be prudent to conclude that there is evidence that some of the 10 possible two-way interactions are important to the model.

From here, we would build some explanation of the results. The interactions would be particularly important to discuss since they may spark interesting physiological or neurological hypotheses to be explored further.

One missing piece of information in this approach is how closely this model fits the actual data. Using resampling methods, discussed in Chapter 10, we can estimate the accuracy of this model to be about 73.3%. Accuracy is often a poor measure of model performance; we use it here because it is commonly understood. If the model has 73.3% fidelity to the data, should we trust the conclusions produced by the model? We might think so until we realize that the baseline rate of non-impaired patients in the data is 72.7%. This means that, despite our statistical analysis, the two-factor model appears to be only 0.6% better than a simple heuristic that always predicts patients to be unimpaired, irregardless of the observed data.

9.2. Regression metrics

lets take the model from Section 8.6. The lm_wflow_fit object was a linear regression model whose predictor set was supplemented with an interaction and spline functions for longitude and latitude. It was created from a training set (named ames_train). Although we do not advise using the test set at this juncture of the modeling process, it will be used to illustrate functionality and syntax. The data frame ames_test consists of 731 properties. To start, lets produce predictions:

ames_test_res <- predict(lm_fit, new_data = ames_test %>% select(-Sale_Price))
ames_test_res

## # A tibble: 731 x 1
##    .pred
##    <dbl>
##  1  5.31
##  2  5.30
##  3  5.17
##  4  5.52
##  5  5.09
##  6  5.49
##  7  5.51
##  8  5.43
##  9  5.55
## 10  5.24
## #  with 721 more rows

The predicted numeric outcome from the regression model is named .pred. Lets match the predicted values with their corresponding observed outcome values:

ames_test_res <- bind_cols(ames_test_res, ames_test %>% select(Sale_Price))
ames_test_res

## # A tibble: 731 x 2
##    .pred Sale_Price
##    <dbl>      <dbl>
##  1  5.31       5.39
##  2  5.30       5.28
##  3  5.17       5.27
##  4  5.52       5.60
##  5  5.09       5.02
##  6  5.49       5.49
##  7  5.51       5.60
##  8  5.43       5.34
##  9  5.55       5.51
## 10  5.24       5.30
## #  with 721 more rows
…
## # A tibble: 1 x 3
##   .metric .estimator .estimate
##   <chr>   <chr>          <dbl>
## 1 f_meas  binary         0.849

For binary classification data sets, these functions have a standard argument called event_level. The default is that the first level of the outcome factor is the event of interest.

There are numerous classification metrics that use the predicted probabilities as inputs rather than the hard class predictions. For example, the receiver operating characteristic (ROC) curve computes the sensitivity and specificity over a continuum of different event thresholds. The predicted class column is not used. There are two yardstick functions for this method: roc_curve() computes the data points that make up the ROC curve and roc_auc() computes the area under the curve.

two_class_curve <- roc_curve(two_class_example, truth, Class1)
two_class_curve

## # A tibble: 502 x 3
##    .threshold specificity sensitivity
##         <dbl>       <dbl>       <dbl>
##  1 -Inf           0                 1
##  2    1.79e-7     0                 1
##  3    4.50e-6     0.00413           1
##  4    5.81e-6     0.00826           1
##  5    5.92e-6     0.0124            1
##  6    1.22e-5     0.0165            1
##  7    1.40e-5     0.0207            1
##  8    1.43e-5     0.0248            1
##  9    2.38e-5     0.0289            1
## 10    3.30e-5     0.0331            1
## #  with 492 more rows
…
